…
Our hypothesized answer is that there would be at least a weak relation
between quality of life and other qualities of the country, therefore
results that show some correlation between variables would support our
hypothesis.

``` r
intro_statistics_1 <- Countries_of_the_world %>%
  select(region, infant_mortality, GDP) %>%
  arrange(desc(GDP))
intro_statistics_1
```

    ## # A tibble: 227 × 3
    ##    region              infant_mortality   GDP
    ##    <chr>                          <dbl> <dbl>
    ##  1 WESTERN EUROPE                  4.81 55100
    ##  2 WESTERN EUROPE                  3.7  37800
    ##  3 NORTHERN AMERICA                6.5  37800
    ##  4 NORTHERN AMERICA                8.53 36000
    ##  5 LATIN AMER. & CARIB             8.19 35000
    ##  6 WESTERN EUROPE                  5.73 34600
    ##  7 WESTERN EUROPE                  4.39 32700
    ##  8 WESTERN EUROPE                  4.56 31100
    ##  9 WESTERN EUROPE                  3.31 30900
    ## 10 WESTERN EUROPE                  4.66 30000
    ## # … with 217 more rows
…
